{
  "entities": [
    {
      "sectionStructure": {
        "columns": [
          {
            "code": "YOUR_EEID",
            "displayLabel": "Employee Identifier",
            "dataType": "string",
            "questionType": "text",
            "validations": [
              {
                "parameter": "",
                "expression": "ISBLANK(this.YOUR_EEID);",
                "clientInstructions": "Submit a unique identifier specific to your organization for each incumbent reported. The number must be unique for each incumbent and preferably constant from year to year. Using unique employee identifiers consistently from year to year better identifies trends. It may be alphanumeric up to nine characters.\nDo not submit Social Security numbers, social insurance numbers, tax identification numbers, passport numbers, or any other governmental identification number, or employee/incumbent names, employee/incumbent birthdays or personal addresses, or employee/incumbent personnel numbers. Do not include dashes or other formatting.",
                "errorType": "ALERT",
                "message": "Employee Identifier is blank.",
                "validationType": "expression",
                "_id": "59f1c151f21d8400151f510e",
                "category": "input_data",
                "dependentColumns": []
              }
            ],
            "mappedColumnName": "YOUR_EEID"
          },
          {
            "code": "YOUR_TITLE",
            "displayLabel": "Organization Job Title",
            "dataType": "string",
            "questionType": "text",
            "validations": [],
            "mappedColumnName": "YOUR_TITLE"
          },
          {
            "code": "RandomQuesCode1",
            "displayLabel": "RandomQuesLabel1",
            "dataType": "int",
            "questionType": "integer",
            "validations": [
              {
                "_id": "59f846224695c70015570e09",
                "validationType": "expression",
                "message": "Integer > 10 accepted",
                "errorType": "ALERT",
                "clientInstructions": "Give Integer > 10 to correct!",
                "expression": "this.RandomQuesCode1<10;",
                "parameter": "",
                "category": "input_data",
                "dependentColumns": []
              },
              {
                "parameter": "",
                "expression": "ISBLANK(this.RandomQuesCode1);",
                "clientInstructions": "Please provide the value for Integer",
                "errorType": "ALERT",
                "message": "Integer field is Blank",
                "validationType": "expression",
                "_id": "5a0428b6741062001559eeea",
                "category": "input_data",
                "dependentColumns": []
              }
            ],
            "options": {
              "items": [
                {
                  "value": "Employee Life",
                  "displayName": "Employee Life"
                },
                {
                  "value": "Spousal Life",
                  "displayName": "Spousal Life"
                },
                {
                  "value": "Child Life",
                  "displayName": "Child Life"
                },
                {
                  "value": "Employee AD & D",
                  "displayName": "Employee AD & D"
                },
                {
                  "value": "Family AD & D",
                  "displayName": "Family AD & D"
                },
                {
                  "value": "Short Term Disability",
                  "displayName": "Short Term Disability"
                },
                {
                  "value": "Long Term Disability",
                  "displayName": "Long Term Disability"
                },
                {
                  "value": "Health",
                  "displayName": "Health"
                },
                {
                  "value": "Vision Care (if separate from Health)",
                  "displayName": "Vision Care (if separate from Health)"
                },
                {
                  "value": "Dental",
                  "displayName": "Dental"
                }
              ]
            },
            "mappedColumnName": "RandomQuesCode1"
          },
          {
            "code": "RandomQuesCode2",
            "displayLabel": "RandomQuesLabel2",
            "dataType": "date",
            "questionType": "date",
            "validations": [
              {
                "parameter": "",
                "expression": "YEAR ( TO_DATE(this.RandomQuesCode2,\"yyyy-MM-dd hh:mm:ss\") )<2017;\n",
                "clientInstructions": "",
                "errorType": "ALERT",
                "message": "Year > 2017 accepted!",
                "validationType": "expression",
                "_id": "5a01edd3929b1f0015971144",
                "category": "input_data",
                "dependentColumns": []
              }
            ],
            "options": {
              "items": [
                {
                  "value": "a",
                  "displayName": "a"
                },
                {
                  "value": "b",
                  "displayName": "b"
                },
                {
                  "value": "c",
                  "displayName": "c"
                }
              ]
            },
            "mappedColumnName": "RandomQuesCode2"
          },
          {
            "code": "RandomQuesCode3",
            "displayLabel": "RandomQuesLabel3",
            "dataType": "string",
            "questionType": "dropdown",
            "validations": [
              {
                "parameter": "",
                "expression": "(this.RandomQuesCode3==\"a\") OR (this.RandomQuesCode3==\"c\");",
                "clientInstructions": "Enter b to Correct!",
                "errorType": "AUTOCORRECT",
                "message": "True for \"a\" or \"c\"",
                "validationType": "expression",
                "_id": "5a04287e741062001559eee9",
                "category": "input_data",
                "dependentColumns": []
              }
            ],
            "options": {
              "items": [
                {
                  "value": "a",
                  "displayName": "a"
                },
                {
                  "value": "b",
                  "displayName": "b"
                },
                {
                  "value": "c",
                  "displayName": "c"
                },
                {
                  "value": "d",
                  "displayName": "d"
                }
              ]
            },
            "mappedColumnName": "RandomQuesCode3"
          },
          {
            "code": "RandomQuesCode4",
            "displayLabel": "RandomQuesLabel4",
            "dataType": "int",
            "questionType": "integer",
            "validations": [],
            "mappedColumnName": "RandomQuesCode4"
          },
          {
            "code": "RandomQuesCode5",
            "displayLabel": "RandomQuesLabel5",
            "dataType": "int",
            "questionType": "integer",
            "validations": [],
            "options": {
              "items": [
                {
                  "value": "a",
                  "displayName": "a"
                },
                {
                  "value": "b",
                  "displayName": "b"
                },
                {
                  "value": "c",
                  "displayName": "c"
                }
              ]
            },
            "mappedColumnName": "RandomQuesCode5"
          },
          {
            "code": "RandomQuesCode6",
            "displayLabel": "RandomQuesLabel6",
            "dataType": "int",
            "questionType": "integer",
            "validations": [
              {
                "parameter": "",
                "expression": "this.RandomQuesCode6>50;",
                "clientInstructions": "Enhancement in Client Instructions!",
                "errorType": "ENHANCEMENT",
                "message": "Enhancement: Enter < 50",
                "validationType": "expression",
                "_id": "59ef300c5d184c001557b33b",
                "category": "input_data",
                "dependentColumns": []
              }
            ],
            "options": {
              "items": [
                {
                  "value": "a",
                  "displayName": "a"
                },
                {
                  "value": "b",
                  "displayName": "b"
                },
                {
                  "value": "c",
                  "displayName": "c"
                }
              ]
            },
            "mappedColumnName": "RandomQuesCode6"
          },
          {
            "code": "RandomQuesCode7",
            "displayLabel": "RandomQuesLabel7",
            "dataType": "double",
            "questionType": "double",
            "validations": [],
            "mappedColumnName": "RandomQuesCode7"
          },
          {
            "code": "RandomQuesCode8",
            "displayLabel": "RandomQuesLabel8",
            "dataType": "double",
            "questionType": "percentage",
            "validations": [],
            "mappedColumnName": "RandomQuesCode8"
          },
          {
            "code": "POS_CLASS",
            "displayLabel": "IPE Position Class (current year) (only for IPE users)",
            "dataType": "int",
            "questionType": "integer",
            "validations": [],
            "mappedColumnName": "POS_CLASS"
          },
          {
            "code": "YOUR_CODE",
            "displayLabel": "Organization Job Code",
            "dataType": "string",
            "questionType": "text",
            "validations": [],
            "mappedColumnName": "YOUR_CODE"
          },
          {
            "code": "YOUR_LEVEL",
            "displayLabel": "Organization Job Level",
            "dataType": "string",
            "questionType": "text",
            "validations": [],
            "mappedColumnName": "YOUR_LEVEL"
          },
          {
            "code": "YOUR_GRADE",
            "displayLabel": "Organization Job Grade",
            "dataType": "string",
            "questionType": "text",
            "validations": [],
            "mappedColumnName": "YOUR_GRADE"
          },
          {
            "code": "POS_CODE",
            "displayLabel": "Mercer Benchmark Code",
            "dataType": "string",
            "questionType": "dropdown",
            "validations": [],
            "options": {
              "items": [
                {
                  "value": "1",
                  "displayName": "Internal"
                },
                {
                  "value": "2",
                  "displayName": "External"
                },
                {
                  "value": "NA",
                  "displayName": "Not applicable"
                }
              ]
            },
            "mappedColumnName": "POS_CODE"
          },
          {
            "mappedColumnName": "YOUR_TITLE",
            "skip": true
          },
          {
            "mappedColumnName": "YOUR_CODE",
            "skip": true
          }
        ]
      },
      "otherSectionsData": {},
      "contextData": {
        "campaignId": "59c39bfd7483e90013b42337",
        "companyId": "59fdbff5cd6b09001497342f",
        "companyName": "Finance Latest",
        "sectionId": "RandomSectionCode1",
        "grpCode": "",
        "cpyCode": "",
        "ctryCode": "US",
        "orgSize": {
          "59fdbff5cd6b09001497342f": null
        },
        "uniqueIdColumnCode": "YOUR_EEID",
        "industry": {
          "superSector": "FS",
          "sector": "163",
          "subSector": "1770"
        }
      }
    }
  ]
}