{
    "entities": [
        {
            "sections": [
                {
                    "sectionCode": "CD_000",
                    "data": [
                        {
                            "CD_073": null,
                            "CD_071": null,
                            "CD_006A": null,
                            "$$id": "5a2803814173ad6246cf10cd",
                            "CD_044": null,
                            "CD_045": null,
                            "CD_043": null
                        }
                    ]
                },
                {
                    "sectionCode": "EMP_DATA",
                    "data": [
                        {
                            "EMP_315": null,
                            "EMP_316": null,
                            "$$id": "5a27e0e14173ad6246cf10ca",
                            "POS_TITLE": null,
                            "EMP_283": null,
                            "EMP_284": null,
                            "EMP_240": null,
                            "EMP_281": null,
                            "EMP_282": null,
                            "EMP_280": null,
                            "EMP_245": null,
                            "EMP_125": "1200",
                            "EMP_001": "MK TEST",
                            "EMP_285": null,
                            "EMP_242": null,
                            "EMP_165": null,
                            "EMP_044": null,
                            "YOUR_OTHER": "",
                            "YOUR_TITLE": "",
                            "EMP_128": "12",
                            "EMP_250": null,
                            "EMP_172": null,
                            "EMP_170": null,
                            "EMP_379": null,
                            "EMP_215": null,
                            "EMP_058A": null,
                            "YOUR_EEID": "ASD123",
                            "ECONOMIC_VALUE": null,
                            "POS_CLASS_ADJUST": null,
                            "YOUR_LEVEL": "",
                            "EMP_261": null,
                            "EMP_262": null,
                            "EMP_185": null,
                            "EMP_226": null,
                            "EMP_026": null,
                            "EMP_221": "0",
                            "EMP_029": null,
                            "POS_CLASS_INGESTED": null,
                            "EXCLUDE_EMPLOYEE": null,
                            "EMP_031": null,
                            "EMP_038": null,
                            "EMP_237": null,
                            "POS_CLASS": null,
                            "YOUR_CODE": "",
                            "EMP_278": null,
                            "EMP_234": null,
                            "EMP_036": null,
                            "EMP_037": "2000",
                            "EMP_233": "Yes",
                            "POS_CODE": null,
                            "EMP_154": null,
                            "YOUR_GRADE": ""
                        },
                        {
                            "EMP_315": null,
                            "EMP_316": null,
                            "$$id": "5a27e0e14173ad6246cf10cb",
                            "POS_TITLE": null,
                            "EMP_283": null,
                            "EMP_284": null,
                            "EMP_240": null,
                            "EMP_281": null,
                            "EMP_282": null,
                            "EMP_280": null,
                            "EMP_245": null,
                            "EMP_125": "1200",
                            "EMP_001": "MK TEST",
                            "EMP_285": null,
                            "EMP_242": null,
                            "EMP_165": null,
                            "EMP_044": null,
                            "YOUR_OTHER": "",
                            "YOUR_TITLE": "",
                            "EMP_128": "12",
                            "EMP_250": null,
                            "EMP_172": null,
                            "EMP_170": null,
                            "EMP_379": null,
                            "EMP_215": null,
                            "EMP_058A": null,
                            "YOUR_EEID": "ASD124",
                            "ECONOMIC_VALUE": null,
                            "POS_CLASS_ADJUST": null,
                            "YOUR_LEVEL": "",
                            "EMP_261": null,
                            "EMP_262": null,
                            "EMP_185": null,
                            "EMP_226": null,
                            "EMP_026": null,
                            "EMP_221": null,
                            "EMP_029": null,
                            "POS_CLASS_INGESTED": null,
                            "EXCLUDE_EMPLOYEE": null,
                            "EMP_031": null,
                            "EMP_038": null,
                            "EMP_237": null,
                            "POS_CLASS": null,
                            "YOUR_CODE": "",
                            "EMP_278": null,
                            "EMP_234": null,
                            "EMP_036": null,
                            "EMP_037": null,
                            "EMP_233": "Yes",
                            "POS_CODE": null,
                            "EMP_154": null,
                            "YOUR_GRADE": ""
                        }
                    ]
                },
                {
                    "sectionCode": "LTI_Plans",
                    "data": [
                        {
                            "LTIPLAN01": null,
                            "LTIPLAN12": null,
                            "LTIPLAN11": null,
                            "LTIPLAN10": null,
                            "LTIPLAN05": null,
                            "LTIPLAN16": null,
                            "LTIPLAN04": null,
                            "LTIPLAN15": null,
                            "LTIPLAN14": null,
                            "LTIPLAN03": null,
                            "LTIPLAN02": null,
                            "LTIPLAN13": null,
                            "$$id": "5970ef81d4cb50a759a8536b",
                            "LTIPLAN09": null,
                            "LTIPLAN08": null,
                            "LTIPLAN07": null,
                            "LTIPLAN18": null,
                            "LTIPLAN06": null,
                            "LTIPLAN17": null
                        }
                    ]
                },
                {
                    "sectionCode": "COMPEN_000",
                    "data": [
                        {
                            "CD_116": null,
                            "LPALL_192": {
                                "EE_group_13LATAM_03": "Y"
                            },
                            "CD_117": null,
                            "LPALL_399A": {
                                "EE_group_13LATAM_07": "Y",
                                "EE_group_13LATAM_08": "Y",
                                "EE_group_13LATAM_05": "Y",
                                "EE_group_13LATAM_06": "Y",
                                "EE_group_13LATAM_03": "Y",
                                "EE_group_13LATAM_04": "Y",
                                "EE_group_13LATAM_01": "Y",
                                "EE_group_13LATAM_02": "Y"
                            },
                            "CD_145": [
                                "null"
                            ],
                            "$$id": "5a2805c74173ad6246cf10d4",
                            "STI_359": null,
                            "CD_143": null,
                            "CD_144": null,
                            "CD_142": null,
                            "CD_120": null,
                            "STI_355": null,
                            "STI_356": null,
                            "STI_358": null,
                            "STI_362": null,
                            "STI_363": null,
                            "STI_354": null,
                            "LPALL_239": null,
                            "STI_361": null,
                            "LPALL_314": null,
                            "LPALL_225": null,
                            "LPALL_255": null,
                            "validationResults": [
                                {
                                    "dependentColumns": "",
                                    "expression": "XSUM(\"EMP_221\",\"\",\"\") == 0 AND this.LPALL_399A.EE_group_13LATAM_01 == \"Y\";",
                                    "errorType": "ALERT",
                                    "parameter": "",
                                    "validationType": "expression",
                                    "_id": "5a1bef40084bfb00152b84d8",
                                    "category": "cross_section",
                                    "dimension": "EE_group_13LATAM_01",
                                    "field": "LPALL_399A"
                                },
                                {
                                    "dependentColumns": "",
                                    "expression": "XSUM(\"EMP_221\",\"\",\"\") == 0 AND this.LPALL_399A.EE_group_13LATAM_02 == \"Y\";",
                                    "errorType": "ALERT",
                                    "parameter": "",
                                    "validationType": "expression",
                                    "_id": "5a1bef40084bfb00152b84d8",
                                    "category": "cross_section",
                                    "dimension": "EE_group_13LATAM_02",
                                    "field": "LPALL_399A"
                                },
                                {
                                    "dependentColumns": "",
                                    "expression": "XSUM(\"EMP_221\",\"\",\"\") == 0 AND this.LPALL_399A.EE_group_13LATAM_03 == \"Y\";",
                                    "errorType": "ALERT",
                                    "parameter": "",
                                    "validationType": "expression",
                                    "_id": "5a1bef40084bfb00152b84d8",
                                    "category": "cross_section",
                                    "dimension": "EE_group_13LATAM_03",
                                    "field": "LPALL_399A"
                                },
                                {
                                    "dependentColumns": "",
                                    "expression": "XSUM(\"EMP_221\",\"\",\"\") == 0 AND this.LPALL_399A.EE_group_13LATAM_04 == \"Y\";",
                                    "errorType": "ALERT",
                                    "parameter": "",
                                    "validationType": "expression",
                                    "_id": "5a1bef40084bfb00152b84d8",
                                    "category": "cross_section",
                                    "dimension": "EE_group_13LATAM_04",
                                    "field": "LPALL_399A"
                                },
                                {
                                    "dependentColumns": "",
                                    "expression": "XSUM(\"EMP_221\",\"\",\"\") == 0 AND this.LPALL_399A.EE_group_13LATAM_05 == \"Y\";",
                                    "errorType": "ALERT",
                                    "parameter": "",
                                    "validationType": "expression",
                                    "_id": "5a1bef40084bfb00152b84d8",
                                    "category": "cross_section",
                                    "dimension": "EE_group_13LATAM_05",
                                    "field": "LPALL_399A"
                                },
                                {
                                    "dependentColumns": "",
                                    "expression": "XSUM(\"EMP_221\",\"\",\"\") == 0 AND this.LPALL_399A.EE_group_13LATAM_06 == \"Y\";",
                                    "errorType": "ALERT",
                                    "parameter": "",
                                    "validationType": "expression",
                                    "_id": "5a1bef40084bfb00152b84d8",
                                    "category": "cross_section",
                                    "dimension": "EE_group_13LATAM_06",
                                    "field": "LPALL_399A"
                                },
                                {
                                    "dependentColumns": "",
                                    "expression": "XSUM(\"EMP_221\",\"\",\"\") == 0 AND this.LPALL_399A.EE_group_13LATAM_07 == \"Y\";",
                                    "errorType": "ALERT",
                                    "parameter": "",
                                    "validationType": "expression",
                                    "_id": "5a1bef40084bfb00152b84d8",
                                    "category": "cross_section",
                                    "dimension": "EE_group_13LATAM_07",
                                    "field": "LPALL_399A"
                                },
                                {
                                    "dependentColumns": "",
                                    "expression": "XSUM(\"EMP_221\",\"\",\"\") == 0 AND this.LPALL_399A.EE_group_13LATAM_08 == \"Y\";",
                                    "errorType": "ALERT",
                                    "parameter": "",
                                    "validationType": "expression",
                                    "_id": "5a1bef40084bfb00152b84d8",
                                    "category": "cross_section",
                                    "dimension": "EE_group_13LATAM_08",
                                    "field": "LPALL_399A"
                                }
                            ]
                        }
                    ]
                }
            ],
            "contextData": {
                "companyId": "5a27ca2f7ebf571d70e9b6f6",
                "campaignId": "597b474bfe305700157895c0",
                "grpCode": "",
                "cpyCode": "",
                "industry": {
                    "superSector": "CG",
                    "subSector": "2670",
                    "sector": "101"
                },
                "orgSize": "",
                "ctryCode": "BO"
            }
        }
    ]
}