{
	"entities": [{
			"sectionStructure": {
				"columns": [{
						"code": "EMP_001",
						"displayLabel": "Entity name ",
						"dataType": "string",
						"errorType": "ERROR",
						"questionType": "text",
						"validations": []
					},
					{
						"code": "YOUR_EEID",
						"displayLabel": "Employee Identifier",
						"dataType": "string",
						"questionType": "text",
						"validations": [

						]
					},
					{
						"code": "POS_CODE",
						"displayLabel": "Mercer Benchmark Code",
						"dataType": "string",
						"questionType": "dropdown",
						"validations": [],
						"options": {
							"items": [{
									"value": "1",
									"displayName": "Internal"
								},
								{
									"value": "2",
									"displayName": "External"
								},
								{
									"value": "NA",
									"displayName": "Not applicable"
								}
							]
						}
					},
					{
						"code": "POS_TITLE",
						"displayLabel": "Mercer Position Title",
						"dataType": "string",
						"questionType": "dropdown",
						"validations": []
					},
					{
						"code": "YOUR_TITLE",
						"displayLabel": "Organization Job Title",
						"dataType": "string",
						"questionType": "text",
						"validations": []
					},
					{
						"code": "YOUR_CODE",
						"displayLabel": "Organization Job Code",
						"dataType": "string",
						"questionType": "text",
						"validations": []
					},
					{
						"code": "YOUR_LEVEL",
						"displayLabel": "Organization Job Level",
						"dataType": "string",
						"questionType": "text",
						"validations": []
					},
					{
						"code": "YOUR_GRADE",
						"displayLabel": "Organization Job Grade",
						"dataType": "string",
						"questionType": "text",
						"validations": []
					},
					{
						"code": "EMP_026",
						"displayLabel": "Organization's  Reports to Position Title",
						"dataType": "string",
						"questionType": "text",
						"validations": []
					},
					{
						"code": "POS_CLASS",
						"displayLabel": "IPE Position Class (current year) (only for IPE users)",
						"dataType": "int",
						"questionType": "integer",
						"validations": []
					},
					{
						"code": "EMP_032",
						"displayLabel": "Incumbent Annual Revenue",
						"dataType": "double",
						"questionType": "double",
						"validations": []
					},
					{
						"code": "EMP_034",
						"displayLabel": "Assets Under Management",
						"dataType": "string",
						"questionType": "dropdown",
						"validations": [],
						"options": {
							"items": [{
									"value": "1",
									"displayName": "Less than $250K"
								},
								{
									"value": "2",
									"displayName": "$250K < $500K"
								},
								{
									"value": "3",
									"displayName": "$500K < $1MM"
								},
								{
									"value": "4",
									"displayName": "$1MM and above"
								},
								{
									"value": "NA",
									"displayName": "Not applicable"
								}
							]
						}
					},
					{
						"code": "EMP_036",
						"displayLabel": "Geographic Scope of Role",
						"dataType": "string",
						"questionType": "dropdown",
						"validations": [{
							"parameter": "",
							"expression": "ISBLANK(this.EMP_036);",
							"clientInstructions": "Please review and update. Mercer will assume and update based on Position code or update Geographic Scope of Role as \"70 - In country\".",
							"errorType": "ERROR",
							"message": "Geographic scope of role is blank",
							"validationType": "expression",
							"_id": "59f1c20ef21d8400151f510f",
							"category": "input_data",
							"dependentColumns": []
						}],
						"options": {
							"items": [{
									"value": "10",
									"displayName": "Global"
								},
								{
									"value": "20",
									"displayName": "Multi Regional"
								},
								{
									"value": "30",
									"displayName": "Regional"
								},
								{
									"value": "50",
									"displayName": "Multi Country"
								},
								{
									"value": "70",
									"displayName": "In Country"
								},
								{
									"value": "80",
									"displayName": "District"
								},
								{
									"value": "NA",
									"displayName": "Not applicable"
								}
							]
						}
					},
					{
						"code": "EMP_037",
						"displayLabel": "Year of Birth",
						"dataType": "int",
						"questionType": "integer",
						"validations": []
					},
					{
						"code": "EMP_038",
						"displayLabel": "Employee Year of Hire",
						"dataType": "int",
						"questionType": "integer",
						"validations": []
					},
					{
						"code": "EMP_039",
						"displayLabel": "Year Entered Into Position",
						"dataType": "int",
						"questionType": "integer",
						"validations": []
					},
					{
						"code": "EMP_043",
						"displayLabel": "Same Incumbent 12 Months Prior",
						"dataType": "string",
						"questionType": "dropdown",
						"validations": [],
						"options": {
							"items": [{
									"value": "Y",
									"displayName": "Yes"
								},
								{
									"value": "N",
									"displayName": "No"
								},
								{
									"value": "NA",
									"displayName": "Not applicable"
								}
							]
						}
					},
					{
						"code": "EMP_044",
						"displayLabel": "Gender",
						"dataType": "string",
						"questionType": "dropdown",
						"validations": [],
						"options": {
							"items": [{
									"value": "F",
									"displayName": "F - Female"
								},
								{
									"value": "M",
									"displayName": "M - Male"
								},
								{
									"value": "NA",
									"displayName": "Not applicable"
								}
							]
						}
					},
					{
						"code": "EMP_049",
						"displayLabel": "Postal Code (Zip Code) job is located",
						"dataType": "string",
						"questionType": "text",
						"validations": []
					},
					{
						"code": "EMP_054",
						"displayLabel": "Line of Business (P&C Insurance positions only)",
						"dataType": "string",
						"questionType": "dropdown",
						"validations": [],
						"options": {
							"items": [{
									"value": "1",
									"displayName": "Personal Lines"
								},
								{
									"value": "2",
									"displayName": "Commercial Lines"
								},
								{
									"value": "3",
									"displayName": "Multiple Personal & Commercial Lines"
								},
								{
									"value": "4",
									"displayName": "Industry Based Lines"
								},
								{
									"value": "5",
									"displayName": "Specialty Lines"
								},
								{
									"value": "6",
									"displayName": "Other"
								},
								{
									"value": "NA",
									"displayName": "Not applicable"
								}
							]
						}
					},
					{
						"code": "EMP_055",
						"displayLabel": "Market Segment (P&C Insurance positions only)",
						"dataType": "string",
						"questionType": "dropdown",
						"validations": [],
						"options": {
							"items": [{
									"value": "2",
									"displayName": "Auto"
								},
								{
									"value": "1",
									"displayName": "Home"
								},
								{
									"value": "3",
									"displayName": "Commercial Property"
								},
								{
									"value": "4",
									"displayName": "Multiple"
								},
								{
									"value": "5",
									"displayName": "Other"
								},
								{
									"value": "NA",
									"displayName": "Not applicable"
								}
							]
						}
					},
					{
						"code": "EMP_058A",
						"displayLabel": "SSO/BPO Employee",
						"dataType": "string",
						"questionType": "dropdown",
						"validations": [],
						"options": {
							"items": [{
									"value": "Y",
									"displayName": "Yes"
								},
								{
									"value": "N",
									"displayName": "No"
								},
								{
									"value": "NA",
									"displayName": "Not applicable"
								}
							]
						}
					},
					{
						"code": "EMP_061",
						"displayLabel": "Union Status",
						"dataType": "string",
						"questionType": "dropdown",
						"validations": [],
						"options": {
							"items": [{
									"value": "Y",
									"displayName": "Yes"
								},
								{
									"value": "N",
									"displayName": "No"
								},
								{
									"value": "NA",
									"displayName": "Not applicable"
								}
							]
						}
					},
					{
						"code": "EMP_067",
						"displayLabel": "License Required",
						"dataType": "string",
						"questionType": "dropdown",
						"validations": [],
						"options": {
							"items": [{
									"value": "Y",
									"displayName": "Yes"
								},
								{
									"value": "N",
									"displayName": "No"
								},
								{
									"value": "NA",
									"displayName": "Not applicable"
								}
							]
						}
					},
					{
						"code": "EMP_096",
						"displayLabel": "Overtime Pay Eligibility",
						"dataType": "string",
						"questionType": "dropdown",
						"validations": [

						],
						"options": {
							"items": [{
									"value": "Y",
									"displayName": "Yes"
								},
								{
									"value": "N",
									"displayName": "No"
								},
								{
									"value": "NA",
									"displayName": "Not applicable"
								}
							]
						}
					},
					{
						"code": "EMP_097",
						"displayLabel": " Salary Effective Date",
						"dataType": "date",
						"questionType": "date",
						"validations": []
					},
					{
						"code": "EMP_098",
						"displayLabel": "Contact Center Number (Contact Centre Module Participants Only) See Guide for Explanation",
						"dataType": "string",
						"questionType": "text",
						"validations": [

						]
					},
					{
						"code": "EMP_099",
						"displayLabel": "Last Performance Rating",
						"dataType": "string",
						"questionType": "dropdown",
						"validations": [],
						"options": {
							"items": [{
									"value": "1",
									"displayName": "Exceed Expectation"
								},
								{
									"value": "2",
									"displayName": "Meet Expectation"
								},
								{
									"value": "3",
									"displayName": "Below Expectation"
								},
								{
									"value": "NA",
									"displayName": "Not applicable"
								}
							]
						}
					},
					{
						"code": "EMP_100",
						"displayLabel": "Quality of Position Match ",
						"dataType": "string",
						"questionType": "dropdown",
						"validations": [],
						"options": {
							"items": [{
									"value": "1",
									"displayName": "Less"
								},
								{
									"value": "2",
									"displayName": "Equal"
								},
								{
									"value": "3",
									"displayName": "More"
								},
								{
									"value": "NA",
									"displayName": "Not applicable"
								}
							]
						}
					},
					{
						"code": "EMP_109",
						"displayLabel": "100% Virtual Agent",
						"dataType": "string",
						"questionType": "dropdown",
						"validations": [],
						"options": {
							"items": [{
									"value": "Y",
									"displayName": "Yes"
								},
								{
									"value": "N",
									"displayName": "No"
								},
								{
									"value": "NA",
									"displayName": "Not applicable"
								}
							]
						}
					},
					{
						"code": "EMP_114",
						"displayLabel": "Sales Incentive Status for Non-Receivers",
						"dataType": "string",
						"questionType": "dropdown",
						"validations": [

						],
						"options": {
							"items": [{
									"value": "1",
									"displayName": "Performance goals not achieved"
								},
								{
									"value": "2",
									"displayName": "New employee"
								},
								{
									"value": "3",
									"displayName": "Payout amount not available"
								},
								{
									"value": "4",
									"displayName": "Plan design change"
								},
								{
									"value": "5",
									"displayName": "Other"
								},
								{
									"value": "NA",
									"displayName": "Not applicable"
								}
							]
						}
					},
					{
						"code": "EMP_116",
						"displayLabel": "Discipline Code (Financial Operations positions only)",
						"dataType": "string",
						"questionType": "dropdown",
						"validations": []
					},
					{
						"code": "EMP_117",
						"displayLabel": "FLSA Status",
						"dataType": "string",
						"questionType": "dropdown",
						"validations": [

						],
						"options": {
							"items": [{
									"value": "E",
									"displayName": "Exempt"
								},
								{
									"value": "N",
									"displayName": "Nonexempt"
								},
								{
									"value": "NA",
									"displayName": "Not applicable"
								}
							]
						}
					},
					{
						"code": "EMP_118",
						"displayLabel": "Industry Segment (Consumer Finance positions only)",
						"dataType": "string",
						"questionType": "dropdown",
						"validations": [],
						"options": {
							"items": [{
									"value": "1",
									"displayName": "Consumer Lending"
								},
								{
									"value": "2",
									"displayName": "Mortgage"
								},
								{
									"value": "NA",
									"displayName": "Not applicable"
								}
							]
						}
					},
					{
						"code": "EMP_119",
						"displayLabel": "Sub-Industry Segment (Consumer Finance positions only)",
						"dataType": "string",
						"questionType": "dropdown",
						"validations": [],
						"options": {
							"items": [{
									"value": "1",
									"displayName": "Traditional direct consumer finance"
								},
								{
									"value": "2",
									"displayName": "Traditional indirect consumer finance"
								},
								{
									"value": "3",
									"displayName": "Auto finance and leasing"
								},
								{
									"value": "4",
									"displayName": "Credit card"
								},
								{
									"value": "5",
									"displayName": "Home equity / real estate"
								},
								{
									"value": "NA",
									"displayName": "Not applicable"
								}
							]
						}
					},
					{
						"code": "EMP_122",
						"displayLabel": "Pay Type",
						"dataType": "string",
						"questionType": "dropdown",
						"validations": [],
						"options": {
							"items": [{
									"value": "A",
									"displayName": "Annual"
								},
								{
									"value": "H",
									"displayName": "Hourly"
								},
								{
									"value": "NA",
									"displayName": "Not applicable"
								}
							]
						}
					},
					{
						"code": "EMP_123",
						"displayLabel": "Standard Work Week (Hours)",
						"dataType": "double",
						"questionType": "double",
						"validations": [

						]
					},
					{
						"code": "EMP_129",
						"displayLabel": "Annual Base Salary (Equivalent to Full Time Employment)",
						"dataType": "double",
						"questionType": "double",
						"validations": [

						]
					},
					{
						"code": "EMP_134",
						"displayLabel": "Salary Range Minimum. Do Not Report Broadband Ranges",
						"dataType": "double",
						"questionType": "double",
						"validations": []
					},
					{
						"code": "EMP_136",
						"displayLabel": "Salary Range Maximum. Do Not Report Broadband Ranges",
						"dataType": "double",
						"questionType": "double",
						"validations": []
					},
					{
						"code": "EMP_233",
						"displayLabel": "Short-term Incentive (Variable Bonus) Eligibility",
						"dataType": "string",
						"questionType": "dropdown",
						"validations": [],
						"options": {
							"items": [{
									"value": "Y",
									"displayName": "Yes"
								},
								{
									"value": "N",
									"displayName": "No"
								},
								{
									"value": "NA",
									"displayName": "Not applicable"
								}
							]
						}
					},
					{
						"code": "EMP_234",
						"displayLabel": "Short-term Incentive (Variable Bonus) (Actual)",
						"dataType": "double",
						"questionType": "double",
						"validations": [

						]
					},
					{
						"code": "EMP_236",
						"displayLabel": "Short-term Incentive (Target) as Percentage of Base Salary",
						"dataType": "double",
						"questionType": "percentage",
						"validations": []
					},
					{
						"code": "EMP_238",
						"displayLabel": "Short-term Incentive (Maximum) as Percentage of Base",
						"dataType": "double",
						"questionType": "percentage",
						"validations": [

						]
					},
					{
						"code": "EMP_239",
						"displayLabel": "Short-term Incentive (Threshold) as Percent of Base",
						"dataType": "double",
						"questionType": "percentage",
						"validations": [

						]
					},
					{
						"code": "EMP_240",
						"displayLabel": "Sales Incentive Eligibility",
						"dataType": "string",
						"questionType": "dropdown",
						"validations": [],
						"options": {
							"items": [{
									"value": "Y",
									"displayName": "Yes"
								},
								{
									"value": "N",
									"displayName": "No"
								},
								{
									"value": "NA",
									"displayName": "Not applicable"
								}
							]
						}
					},
					{
						"code": "EMP_242",
						"displayLabel": "Sales Incentive Annual Amount (Actual)",
						"dataType": "double",
						"questionType": "double",
						"validations": [

						]
					},
					{
						"code": "EMP_244",
						"displayLabel": "Sales Incentive (Target) as Percentage of Base",
						"dataType": "double",
						"questionType": "percentage",
						"validations": [

						]
					},
					{
						"code": "EMP_260",
						"displayLabel": "Profit Sharing Plan Eligibility",
						"dataType": "string",
						"questionType": "dropdown",
						"validations": [],
						"options": {
							"items": [{
									"value": "Y",
									"displayName": "Yes"
								},
								{
									"value": "N",
									"displayName": "No"
								},
								{
									"value": "NA",
									"displayName": "Not applicable"
								}
							]
						}
					},
					{
						"code": "EMP_261",
						"displayLabel": "Profit Sharing (Actual)",
						"dataType": "double",
						"questionType": "double",
						"validations": []
					},
					{
						"code": "EMP_273",
						"displayLabel": "Short-term Incentive Status for Non-Receivers",
						"dataType": "string",
						"questionType": "dropdown",
						"validations": [],
						"options": {
							"items": [{
									"value": "1",
									"displayName": "Performance goals not achieved"
								},
								{
									"value": "2",
									"displayName": "New employee"
								},
								{
									"value": "3",
									"displayName": "Payout amount not available"
								},
								{
									"value": "4",
									"displayName": "Plan design change"
								},
								{
									"value": "5",
									"displayName": "Other"
								},
								{
									"value": "NA",
									"displayName": "Not applicable"
								}
							]
						}
					},
					{
						"code": "EMP_278",
						"displayLabel": "Long-term Incentive Eligible",
						"dataType": "string",
						"questionType": "dropdown",
						"validations": [],
						"options": {
							"items": [{
									"value": "Y",
									"displayName": "Yes"
								},
								{
									"value": "N",
									"displayName": "No"
								},
								{
									"value": "NA",
									"displayName": "Not applicable"
								}
							]
						}
					},
					{
						"code": "EMP_279",
						"displayLabel": "LTI Plan Types Offered. Enter all that apply ",
						"dataType": "string",
						"questionType": "dropdown",
						"validations": [],
						"options": {
							"items": [{
									"value": "11",
									"displayName": "Stock/Share Options"
								},
								{
									"value": "12",
									"displayName": "Share Appreciation Rights (SARs)"
								},
								{
									"value": "21",
									"displayName": "Restricted Shares/Share Units"
								},
								{
									"value": "22",
									"displayName": "Performance Shares/Share Units"
								},
								{
									"value": "31",
									"displayName": "Performance Cash Units"
								},
								{
									"value": "32",
									"displayName": "Long-term Cash"
								},
								{
									"value": "NA",
									"displayName": "Not applicable"
								}
							]
						}
					},
					{
						"code": "EMP_280",
						"displayLabel": "LTI Plan Award #1. Organization LTI Plan Identifier (identifiers provided on the LTI Plans section)",
						"dataType": "string",
						"questionType": "text",
						"validations": []
					},
					{
						"code": "EMP_281",
						"displayLabel": "Number of Granted Options/Shares/Performance Units or value of Granted Cash Award",
						"dataType": "double",
						"questionType": "double",
						"validations": []
					},
					{
						"code": "EMP_282",
						"displayLabel": "LTI Plan Award #2. Organization LTI Plan Identifier (identifiers provided on the LTI Plans section)",
						"dataType": "string",
						"questionType": "text",
						"validations": []
					},
					{
						"code": "EMP_283",
						"displayLabel": "Number of granted Options/ Shares/ Performance Units or value of granted Cash Award",
						"dataType": "double",
						"questionType": "double",
						"validations": []
					},
					{
						"code": "EMP_284",
						"displayLabel": "LTI Plan Award #3. Organization LTI Plan Identifier (identifiers provided on the LTI Plans section)",
						"dataType": "string",
						"questionType": "text",
						"validations": []
					},
					{
						"code": "EMP_285",
						"displayLabel": "Number of granted Options/ Shares/ Performance Units or value of granted Cash Award",
						"dataType": "double",
						"questionType": "double",
						"validations": []
					},
					{
						"code": "EMP_290",
						"displayLabel": "Stock/Share Ownership Guidelines",
						"dataType": "string",
						"questionType": "dropdown",
						"validations": [

						],
						"options": {
							"items": [{
									"value": "Y",
									"displayName": "Yes"
								},
								{
									"value": "N",
									"displayName": "No"
								},
								{
									"value": "NA",
									"displayName": "Not applicable"
								}
							]
						}
					}
				]
			},
			"otherSectionsData": {
				"CD_024": "",
				"NUM_EMP": ""
			},
			"contextData": {
				"campaignId": "597b474bfe305700157895c0",
				"companyId": "59e9b3bb22833b0016e58841",
				"companyName": "ABC",
				"sectionId": "EMP_DATA",
				"grpCode": "",
				"cpyCode": "",
				"ctryCode": "US",
				"orgSize": {
					"59e9b3bb22833b0016e58841": null
				},
				"uniqueIdColumnCode": "YOUR_EEID",
				"industry": {
					"superSector": "CG",
					"sector": "101",
					"subSector": "2670"
				}
			}
		},
		{
			"sectionStructure": {
				"columns": [{
						"code": "EMP_001",
						"displayLabel": "Entity name ",
						"dataType": "string",
						"questionType": "text",
						"validations": []
					},
					{
						"code": "YOUR_EEID",
						"displayLabel": "Employee Identifier",
						"dataType": "string",
						"questionType": "text",
						"validations": [

						]
					},
					{
						"code": "POS_CODE",
						"displayLabel": "Mercer Benchmark Code",
						"dataType": "string",
						"questionType": "dropdown",
						"validations": [],
						"options": {
							"items": [{
									"value": "1",
									"displayName": "Internal"
								},
								{
									"value": "2",
									"displayName": "External"
								},
								{
									"value": "NA",
									"displayName": "Not applicable"
								}
							]
						}
					},
					{
						"code": "POS_TITLE",
						"displayLabel": "Mercer Position Title",
						"dataType": "string",
						"questionType": "dropdown",
						"validations": []
					},
					{
						"code": "EMP_010",
						"displayLabel": "Therapeutic Area Flag",
						"dataType": "string",
						"questionType": "dropdown",
						"validations": [],
						"options": {
							"items": [{
									"value": "1",
									"displayName": "Animal Health"
								},
								{
									"value": "2",
									"displayName": "Bio/Pharmaceuticals"
								},
								{
									"value": "3",
									"displayName": "Bio/Pharmaceuticals - Speciality"
								},
								{
									"value": "4",
									"displayName": "Cardiovascular"
								},
								{
									"value": "5",
									"displayName": "Generics"
								},
								{
									"value": "6",
									"displayName": "Medical Devices: Capital Equipment"
								},
								{
									"value": "7",
									"displayName": "Medical Devices: Consumables/Disposables"
								},
								{
									"value": "8",
									"displayName": "Medical Devices: Durable Goods"
								},
								{
									"value": "9",
									"displayName": "Medical Devices: Implantable Devices"
								},
								{
									"value": "10",
									"displayName": "Oncology"
								},
								{
									"value": "11",
									"displayName": "OTC"
								},
								{
									"value": "12",
									"displayName": "Vaccines"
								},
								{
									"value": "NA",
									"displayName": "Not applicable"
								}
							]
						}
					},
					{
						"code": "YOUR_TITLE",
						"displayLabel": "Organization Job Title",
						"dataType": "string",
						"questionType": "text",
						"validations": []
					},
					{
						"code": "YOUR_CODE",
						"displayLabel": "Organization Job Code",
						"dataType": "string",
						"questionType": "text",
						"validations": []
					},
					{
						"code": "YOUR_LEVEL",
						"displayLabel": "Organization Job Level",
						"dataType": "string",
						"questionType": "text",
						"validations": []
					},
					{
						"code": "YOUR_GRADE",
						"displayLabel": "Organization Job Grade",
						"dataType": "string",
						"questionType": "text",
						"validations": []
					},
					{
						"code": "YOUR_OTHER",
						"displayLabel": "Organization Job ID - Other",
						"dataType": "string",
						"questionType": "text",
						"validations": []
					},
					{
						"code": "EMP_026",
						"displayLabel": "Organization's  Reports to Position Title",
						"dataType": "string",
						"questionType": "text",
						"validations": []
					},
					{
						"code": "POS_CLASS",
						"displayLabel": "IPE Position Class (current year) (only for IPE users)",
						"dataType": "int",
						"questionType": "integer",
						"validations": []
					},
					{
						"code": "EMP_029",
						"displayLabel": "IPE Position Class (previous year) (for reference only)",
						"dataType": "int",
						"questionType": "integer",
						"validations": []
					},
					{
						"code": "EMP_030",
						"displayLabel": "Organization IPE Size (only for IPE users)",
						"dataType": "string",
						"questionType": "dropdown",
						"validations": [],
						"options": {
							"items": [{
									"value": "1",
									"displayName": "1"
								},
								{
									"value": "2",
									"displayName": "2"
								},
								{
									"value": "3",
									"displayName": "3"
								},
								{
									"value": "4",
									"displayName": "4"
								},
								{
									"value": "5",
									"displayName": "5"
								},
								{
									"value": "6",
									"displayName": "6"
								},
								{
									"value": "7",
									"displayName": "7"
								},
								{
									"value": "8",
									"displayName": "8"
								},
								{
									"value": "9",
									"displayName": "9"
								},
								{
									"value": "10",
									"displayName": "10"
								},
								{
									"value": "11",
									"displayName": "11"
								},
								{
									"value": "12",
									"displayName": "12"
								},
								{
									"value": "13",
									"displayName": "13"
								},
								{
									"value": "14",
									"displayName": "14"
								},
								{
									"value": "15",
									"displayName": "15"
								},
								{
									"value": "16",
									"displayName": "16"
								},
								{
									"value": "17",
									"displayName": "17"
								},
								{
									"value": "18",
									"displayName": "18"
								},
								{
									"value": "19",
									"displayName": "19"
								},
								{
									"value": "20",
									"displayName": "20"
								},
								{
									"value": "NA",
									"displayName": "Not applicable"
								}
							]
						}
					},
					{
						"code": "EMP_031",
						"displayLabel": "Revenue for business in which role sits",
						"dataType": "double",
						"questionType": "double",
						"validations": [],
						"options": {
							"items": [{
									"value": "1",
									"displayName": "Updated annually"
								},
								{
									"value": "NA",
									"displayName": "Not applicable"
								}
							]
						}
					},
					{
						"code": "EMP_036",
						"displayLabel": "Geographic Scope of Role",
						"dataType": "string",
						"questionType": "dropdown",
						"validations": [{
							"parameter": "",
							"expression": "ISBLANK(this.EMP_036);",
							"clientInstructions": "Please review and update. Mercer will assume and update based on Position code or update Geographic Scope of Role as \"70 - In country\".",
							"errorType": "ERROR",
							"message": "Geographic scope of role is blank",
							"validationType": "expression",
							"_id": "59f1c20ef21d8400151f510f",
							"category": "input_data",
							"dependentColumns": []
						}],
						"options": {
							"items": [{
									"value": "10",
									"displayName": "Global"
								},
								{
									"value": "20",
									"displayName": "Multi Regional"
								},
								{
									"value": "30",
									"displayName": "Regional"
								},
								{
									"value": "50",
									"displayName": "Multi Country"
								},
								{
									"value": "70",
									"displayName": "In Country"
								},
								{
									"value": "80",
									"displayName": "District"
								},
								{
									"value": "NA",
									"displayName": "Not applicable"
								}
							]
						}
					},
					{
						"code": "EMP_037",
						"displayLabel": "Year of Birth",
						"dataType": "int",
						"questionType": "integer",
						"validations": []
					},
					{
						"code": "EMP_038",
						"displayLabel": "Employee Year of Hire",
						"dataType": "int",
						"questionType": "integer",
						"validations": []
					},
					{
						"code": "EMP_042",
						"displayLabel": "Has this incumbent changed role from last year?",
						"dataType": "string",
						"questionType": "dropdown",
						"validations": [],
						"options": {
							"items": [{
									"value": "Y",
									"displayName": "Yes"
								},
								{
									"value": "N",
									"displayName": "No"
								},
								{
									"value": "NA",
									"displayName": "Not applicable"
								}
							]
						}
					},
					{
						"code": "EMP_044",
						"displayLabel": "Gender",
						"dataType": "string",
						"questionType": "dropdown",
						"validations": [],
						"options": {
							"items": [{
									"value": "F",
									"displayName": "F - Female"
								},
								{
									"value": "M",
									"displayName": "M - Male"
								},
								{
									"value": "NA",
									"displayName": "Not applicable"
								}
							]
						}
					},
					{
						"code": "EMP_047",
						"displayLabel": "Region (State, City) job is located",
						"dataType": "string",
						"questionType": "dropdown",
						"validations": []
					},
					{
						"code": "EMP_058A",
						"displayLabel": "SSO/BPO Employee",
						"dataType": "string",
						"questionType": "dropdown",
						"validations": [],
						"options": {
							"items": [{
									"value": "Y",
									"displayName": "Yes"
								},
								{
									"value": "N",
									"displayName": "No"
								},
								{
									"value": "NA",
									"displayName": "Not applicable"
								}
							]
						}
					},
					{
						"code": "EMP_103",
						"displayLabel": "Type of Store Managed ",
						"dataType": "string",
						"questionType": "dropdown",
						"validations": [],
						"options": {
							"items": [{
									"value": "1",
									"displayName": "Stand alone"
								},
								{
									"value": "2",
									"displayName": "Flagship"
								},
								{
									"value": "3",
									"displayName": "Department"
								},
								{
									"value": "4",
									"displayName": "Mall/Outlet"
								},
								{
									"value": "5",
									"displayName": "Airport/Duty Free"
								},
								{
									"value": "NA",
									"displayName": "Not Applicable"
								}
							]
						}
					},
					{
						"code": "EMP_104",
						"displayLabel": "Store Size (for Store Positions only)  ",
						"dataType": "string",
						"questionType": "dropdown",
						"validations": [],
						"options": {
							"items": [{
									"value": "1",
									"displayName": "Mega-Flagship Store"
								},
								{
									"value": "2",
									"displayName": "Flagship store"
								},
								{
									"value": "3",
									"displayName": "Large store "
								},
								{
									"value": "4",
									"displayName": "Standard store"
								},
								{
									"value": "5",
									"displayName": "Small store"
								},
								{
									"value": "NA",
									"displayName": "Not Applicable"
								}
							]
						}
					},
					{
						"code": "EMP_124",
						"displayLabel": "Employee salary currency",
						"dataType": "string",
						"questionType": "dropdown",
						"validations": [],
						"options": {
							"items": [{
									"value": "AED",
									"displayName": "AED"
								},
								{
									"value": "AMD",
									"displayName": "AMD"
								},
								{
									"value": "ARS",
									"displayName": "ARS"
								},
								{
									"value": "AUD",
									"displayName": "AUD"
								},
								{
									"value": "AZN",
									"displayName": "AZN"
								},
								{
									"value": "BAM",
									"displayName": "BAM"
								},
								{
									"value": "BGN",
									"displayName": "BGN"
								},
								{
									"value": "BHD",
									"displayName": "BHD"
								},
								{
									"value": "BRL",
									"displayName": "BRL"
								},
								{
									"value": "BYR",
									"displayName": "BYR"
								},
								{
									"value": "CAD",
									"displayName": "CAD"
								},
								{
									"value": "CHF",
									"displayName": "CHF"
								},
								{
									"value": "CLP",
									"displayName": "CLP"
								},
								{
									"value": "CNY",
									"displayName": "CNY"
								},
								{
									"value": "COP",
									"displayName": "COP"
								},
								{
									"value": "CRC",
									"displayName": "CRC"
								},
								{
									"value": "CZK",
									"displayName": "CZK"
								},
								{
									"value": "DKK",
									"displayName": "DKK"
								},
								{
									"value": "DZD",
									"displayName": "DZD"
								},
								{
									"value": "EEK",
									"displayName": "EEK"
								},
								{
									"value": "EGP",
									"displayName": "EGP"
								},
								{
									"value": "EUR",
									"displayName": "EUR"
								},
								{
									"value": "GBP",
									"displayName": "GBP"
								},
								{
									"value": "GEL",
									"displayName": "GEL"
								},
								{
									"value": "GTQ",
									"displayName": "GTQ"
								},
								{
									"value": "HKD",
									"displayName": "HKD"
								},
								{
									"value": "HRK",
									"displayName": "HRK"
								},
								{
									"value": "HUF",
									"displayName": "HUF"
								},
								{
									"value": "IDR",
									"displayName": "IDR"
								},
								{
									"value": "ILS",
									"displayName": "ILS"
								},
								{
									"value": "INR",
									"displayName": "INR"
								},
								{
									"value": "IRR",
									"displayName": "IRR"
								},
								{
									"value": "JPY",
									"displayName": "JPY"
								},
								{
									"value": "KRW",
									"displayName": "KRW"
								},
								{
									"value": "KWD",
									"displayName": "KWD"
								},
								{
									"value": "KZT",
									"displayName": "KZT"
								},
								{
									"value": "LTL",
									"displayName": "LTL"
								},
								{
									"value": "LVL",
									"displayName": "LVL"
								},
								{
									"value": "LYD",
									"displayName": "LYD"
								},
								{
									"value": "MAD",
									"displayName": "MAD"
								},
								{
									"value": "MDL",
									"displayName": "MDL"
								},
								{
									"value": "MKD",
									"displayName": "MKD"
								},
								{
									"value": "MXN",
									"displayName": "MXN"
								},
								{
									"value": "MYR",
									"displayName": "MYR"
								},
								{
									"value": "NGN",
									"displayName": "NGN"
								},
								{
									"value": "NOK",
									"displayName": "NOK"
								},
								{
									"value": "NZD",
									"displayName": "NZD"
								},
								{
									"value": "OMR",
									"displayName": "OMR"
								},
								{
									"value": "PAB",
									"displayName": "PAB"
								},
								{
									"value": "PEN",
									"displayName": "PEN"
								},
								{
									"value": "PHP",
									"displayName": "PHP"
								},
								{
									"value": "PKR",
									"displayName": "PKR"
								},
								{
									"value": "PLN",
									"displayName": "PLN"
								},
								{
									"value": "QAR",
									"displayName": "QAR"
								},
								{
									"value": "RON",
									"displayName": "RON"
								},
								{
									"value": "RSD",
									"displayName": "RSD"
								},
								{
									"value": "RUB",
									"displayName": "RUB"
								},
								{
									"value": "SAR",
									"displayName": "SAR"
								},
								{
									"value": "SEK",
									"displayName": "SEK"
								},
								{
									"value": "SGD",
									"displayName": "SGD"
								},
								{
									"value": "SVC",
									"displayName": "SVC"
								},
								{
									"value": "THB",
									"displayName": "THB"
								},
								{
									"value": "TND",
									"displayName": "TND"
								},
								{
									"value": "TRY",
									"displayName": "TRY"
								},
								{
									"value": "TWD",
									"displayName": "TWD"
								},
								{
									"value": "UAH",
									"displayName": "UAH"
								},
								{
									"value": "USD",
									"displayName": "USD"
								},
								{
									"value": "UYU",
									"displayName": "UYU"
								},
								{
									"value": "UZS",
									"displayName": "UZS"
								},
								{
									"value": "VEF",
									"displayName": "VEF"
								},
								{
									"value": "VND",
									"displayName": "VND"
								},
								{
									"value": "YER",
									"displayName": "YER"
								},
								{
									"value": "ZAR",
									"displayName": "ZAR"
								},
								{
									"value": "NA",
									"displayName": "Not applicable"
								}
							]
						}
					},
					{
						"code": "EMP_125",
						"displayLabel": "Monthly Base Salary (Equivalent to Full Time Employment)",
						"dataType": "double",
						"questionType": "double",
						"validations": [

						]
					},
					{
						"code": "EMP_128",
						"displayLabel": "Number of Months Paid",
						"dataType": "double",
						"questionType": "double",
						"validations": [

						]
					},
					{
						"code": "EMP_129",
						"displayLabel": "Annual Base Salary (Equivalent to Full Time Employment)",
						"dataType": "double",
						"questionType": "double",
						"validations": [

						]
					},
					{
						"code": "EMP_131",
						"displayLabel": "Annual Base Salary for Previous Year",
						"dataType": "double",
						"questionType": "double",
						"validations": []
					},
					{
						"code": "EMP_172",
						"displayLabel": "Meal or Luncheon Voucher Allowance",
						"dataType": "double",
						"questionType": "double",
						"validations": []
					},
					{
						"code": "EMP_185",
						"displayLabel": "Other Annual Guaranteed Allowance",
						"dataType": "double",
						"questionType": "double",
						"validations": []
					},
					{
						"code": "EMP_217",
						"displayLabel": "Shift Allowance Amount",
						"dataType": "double",
						"questionType": "double",
						"validations": []
					},
					{
						"code": "EMP_221",
						"displayLabel": "Transportation Allowance",
						"dataType": "double",
						"questionType": "double",
						"validations": []
					},
					{
						"code": "EMP_233",
						"displayLabel": "Short-term Incentive (Variable Bonus) Eligibility",
						"dataType": "string",
						"questionType": "dropdown",
						"validations": [],
						"options": {
							"items": [{
									"value": "Y",
									"displayName": "Yes"
								},
								{
									"value": "N",
									"displayName": "No"
								},
								{
									"value": "NA",
									"displayName": "Not applicable"
								}
							]
						}
					},
					{
						"code": "EMP_234",
						"displayLabel": "Short-term Incentive (Variable Bonus) (Actual)",
						"dataType": "double",
						"questionType": "double",
						"validations": [

						]
					},
					{
						"code": "EMP_236",
						"displayLabel": "Short-term Incentive (Target) as Percentage of Base Salary",
						"dataType": "double",
						"questionType": "percentage",
						"validations": []
					},
					{
						"code": "EMP_238",
						"displayLabel": "Short-term Incentive (Maximum) as Percentage of Base",
						"dataType": "double",
						"questionType": "percentage",
						"validations": [

						]
					},
					{
						"code": "EMP_240",
						"displayLabel": "Sales Incentive Eligibility",
						"dataType": "string",
						"questionType": "dropdown",
						"validations": [],
						"options": {
							"items": [{
									"value": "Y",
									"displayName": "Yes"
								},
								{
									"value": "N",
									"displayName": "No"
								},
								{
									"value": "NA",
									"displayName": "Not applicable"
								}
							]
						}
					},
					{
						"code": "EMP_242",
						"displayLabel": "Sales Incentive Annual Amount (Actual)",
						"dataType": "double",
						"questionType": "double",
						"validations": [

						]
					},
					{
						"code": "EMP_244",
						"displayLabel": "Sales Incentive (Target) as Percentage of Base",
						"dataType": "double",
						"questionType": "percentage",
						"validations": [

						]
					},
					{
						"code": "EMP_250",
						"displayLabel": "Other Short-term Incentive (Actual)",
						"dataType": "double",
						"questionType": "double",
						"validations": []
					},
					{
						"code": "EMP_278",
						"displayLabel": "Long-term Incentive Eligible",
						"dataType": "string",
						"questionType": "dropdown",
						"validations": [],
						"options": {
							"items": [{
									"value": "Y",
									"displayName": "Yes"
								},
								{
									"value": "N",
									"displayName": "No"
								},
								{
									"value": "NA",
									"displayName": "Not applicable"
								}
							]
						}
					},
					{
						"code": "EMP_280",
						"displayLabel": "LTI Plan Award #1. Organization LTI Plan Identifier (identifiers provided on the LTI Plans section)",
						"dataType": "string",
						"questionType": "text",
						"validations": []
					},
					{
						"code": "EMP_281",
						"displayLabel": "Number of Granted Options/Shares/Performance Units or value of Granted Cash Award",
						"dataType": "double",
						"questionType": "double",
						"validations": []
					},
					{
						"code": "EMP_282",
						"displayLabel": "LTI Plan Award #2. Organization LTI Plan Identifier (identifiers provided on the LTI Plans section)",
						"dataType": "string",
						"questionType": "text",
						"validations": []
					},
					{
						"code": "EMP_283",
						"displayLabel": "Number of granted Options/ Shares/ Performance Units or value of granted Cash Award",
						"dataType": "double",
						"questionType": "double",
						"validations": []
					},
					{
						"code": "EMP_284",
						"displayLabel": "LTI Plan Award #3. Organization LTI Plan Identifier (identifiers provided on the LTI Plans section)",
						"dataType": "string",
						"questionType": "text",
						"validations": []
					},
					{
						"code": "EMP_285",
						"displayLabel": "Number of granted Options/ Shares/ Performance Units or value of granted Cash Award",
						"dataType": "double",
						"questionType": "double",
						"validations": []
					},
					{
						"code": "EMP_351",
						"displayLabel": "Holiday Entitlement (days of vacation)",
						"dataType": "double",
						"questionType": "double",
						"validations": []
					},
					{
						"code": "EMP_379",
						"displayLabel": "Type of Company Car Benefit",
						"dataType": "string",
						"questionType": "dropdown",
						"validations": [],
						"options": {
							"items": [{
									"value": "1",
									"displayName": "Not eligible for any type of Company Car Benefit"
								},
								{
									"value": "2",
									"displayName": "Company Car offered for business use only"
								},
								{
									"value": "3",
									"displayName": "Company Car offered for business and personal use"
								},
								{
									"value": "4",
									"displayName": "Allowance in Lieu of Company Car (Cash Allowance)"
								},
								{
									"value": "5",
									"displayName": "Choice between Company Car (business and personal use) and Cash Allowance"
								},
								{
									"value": "NA",
									"displayName": "Not applicable"
								}
							]
						}
					},
					{
						"code": "EMP_387",
						"displayLabel": "ANNUAL Allowance in Lieu of a Company Car",
						"dataType": "double",
						"questionType": "double",
						"validations": []
					},
					{
						"code": "EMP_388",
						"displayLabel": "Replacement Term (in years)",
						"dataType": "int",
						"questionType": "integer",
						"validations": []
					},
					{
						"code": "EMP_394",
						"displayLabel": "List Price",
						"dataType": "double",
						"questionType": "double",
						"validations": []
					},
					{
						"code": "EMP_397",
						"displayLabel": "Annual Lease Cost (incl. VAT)",
						"dataType": "double",
						"questionType": "double",
						"validations": []
					},
					{
						"code": "EMP_404",
						"displayLabel": "Fuel for private use paid by organization (%)",
						"dataType": "double",
						"questionType": "percentage",
						"validations": []
					}
				]
			},
			"otherSectionsData": {
				"CD_024": "",
				"NUM_EMP": ""
			},
			"contextData": {
				"campaignId": "597b474bfe305700157895c0",
				"companyId": "59f34f89def27d0015f77573",
				"companyName": "ABC",
				"sectionId": "EMP_DATA",
				"grpCode": "",
				"cpyCode": "",
				"ctryCode": "GB",
				"orgSize": {
					"59e9b3bb22833b0016e58841": null
				},
				"uniqueIdColumnCode": "YOUR_EEID",
				"industry": {
					"superSector": "CG",
					"sector": "101",
					"subSector": "2670"
				}
			}
		}
	]
}