{  
   "entities":[  
      {  
         "sectionStructure":{  
            "columns":[  
               {  
                  "code":"city",
                  "displayLabel":"city",
				  "dataType":"string",
				  "mappedColumnName": "city",
                  "validations":[  
                     {  
                        "errorType":"ERROR",
                        "validationType":"expression",
                        "expression":"decode(length(this.city) > 0,'true','false')",
                        "errorGroup":"Personal",
                        "message":"Length of Department"
                     }
                  ]
               },
               {   
                  "code":"YOUR_EEID",
                  "displayLabel":"YOUR_EEID",
                  "dataType":"string",
				  "mappedColumnName": "YOUR_EEID",
				   "validations":[]
               },
			   {   
                  "code":"COUNTRY_CODE",
                  "displayLabel":"COUNTRY_CODE",
                  "dataType":"string",
				  "mappedColumnName": "COUNTRY_CODE",
				   "validations":[  
                     {  
                        "errorType":"ERROR",
                        "validationType":"expression",
                        "expression":"decode(length(this.COUNTRY_CODE) > 0,'true','false')",
                        "errorGroup":"Personal",
                        "message":"Length of Department"
                     }
                  ]
               },
			   {
				  "mappedColumnName": "CompanyNames",
				  "skip":"true",
				   "validations":[]
               },
			    {   
				  "mappedColumnName": "CountryName",
				  "skip":"true",
				   "validations":[]
               }
			   
            ]
         },
         
         "contextData":{  
            "uniqueIdColumnCode":"ID",
            "campaignId":"11111",
			"companyName":"Company1",
			"entityNameColumnCode":"CompanyNames", 
			"entityCountryColumnCode":"CountryName", 			
			"mappedCompany":[ {"name":"KFC1", "country":"US1"}, {"name":"KFC2", "country":"US2"}],
			 "ctryCode":"US",
            "sectionId":"22222",
            "grpCode":"3333",
            "cpyCode":"4444",
            "industry":{  
               "superSector":"CG",
               "sector":"100",
               "subSector":"101"
            },
            "orgSize":123
         }
      }
   ]
}