{
  "entities": [
    {
      "sectionStructure": {
        "columns": [
          {
            "code": "YOUR_EEID",
            "displayLabel": "Employee Identifier",
            "dataType": "int",
            "questionType": "integer",
            "validations": []
          },
          {
            "code": "YOUR_TITLE",
            "displayLabel": "Organisation Job Title",
            "dataType": "string",
            "questionType": "text",
            "validations": [
              {
                "errorType": "ERROR",
                "validationType": "expression",
                "expression": "ISBLANK(this.YOUR_TITLE)",
                "errorGroup": "base_salary",
                "message": "YOUR_TITLE value can not be null or empty",
                "_id": "59ca0dd9f8cda056446c0663",
                "category": "input_data"
              }
            ]
          },
          {
            "code": "range",
            "displayLabel": "Range",
            "dataType": "int",
            "questionType": "integer",
            "validations": [
              {
                "mda": "exclude_row",
                "maxError": 110,
                "minError": 7,
                "maxAlert": 80,
                "message": "",
                "expression": "",
                "minAlert": 20,
                "validationType": "range",
                "_id": "59df5c44527b5be1ac230224",
                "category": "input_data",
                "dependentColumns": []
              }
            ]
          }
        ]
      },
      "otherSectionsData": {},
      "contextData": {
        "campaignId": "59ca2a66c1e15a565af88407",
        "companyId": "59c3eac0fc22fa6928d09aa4",
        "companyName": "Exadel",
        "sectionId": "pe3707Section",
        "grpCode": "",
        "cpyCode": "",
        "ctryCode": "BY",
        "orgSize": {
          "59c3eac0fc22fa6928d09aa4": null
        },
        "uniqueIdColumnCode": "YOUR_EEID",
        "industry": {
          "superSector": "CG",
          "sector": "101",
          "subSector": "2670"
        }
      }
    }
  ]
}